<?xml version="1.0" encoding="UTF-8"?>
<svg height="128px" viewBox="0 0 128 128" width="128px" xmlns="http://www.w3.org/2000/svg" xmlns:xlink="http://www.w3.org/1999/xlink">
    <linearGradient id="a" gradientUnits="userSpaceOnUse" x1="32" x2="96" y1="120" y2="120">
        <stop offset="0" stop-color="#9a9996"/>
        <stop offset="0.0598479" stop-color="#cccac7"/>
        <stop offset="0.221875" stop-color="#838280"/>
        <stop offset="0.845503" stop-color="#9a9996"/>
        <stop offset="0.936319" stop-color="#c7c6c3"/>
        <stop offset="1" stop-color="#9a9996"/>
    </linearGradient>
    <clipPath id="b">
        <path d="m 12 24 h 104 v 54 h -104 z m 0 0"/>
    </clipPath>
    <clipPath id="c">
        <path d="m 20.636719 22 c -4.738281 0 -8.550781 3.8125 -8.550781 8.550781 v 37.460938 c -0.027344 -0.003907 -0.058594 0 -0.085938 0 c -1.105469 -0.003907 -2 0.886719 -2 1.988281 v 2 c 0 4.738281 3.769531 8 8.507812 8 h 90.890626 c 4.738281 0 8.601562 -3.261719 8.601562 -8 v -2 c 0 -1.105469 -0.894531 -2 -2 -2 v -37.449219 c 0 -4.738281 -3.8125 -8.550781 -8.550781 -8.550781 z m 0 0"/>
    </clipPath>
    <clipPath id="d">
        <path d="m 10 69 h 108 v 11 h -108 z m 0 0"/>
    </clipPath>
    <clipPath id="e">
        <path d="m 20.636719 22 c -4.738281 0 -8.550781 3.8125 -8.550781 8.550781 v 37.460938 c -0.027344 -0.003907 -0.058594 0 -0.085938 0 c -1.105469 -0.003907 -2 0.886719 -2 1.988281 v 2 c 0 4.738281 3.769531 8 8.507812 8 h 90.890626 c 4.738281 0 8.601562 -3.261719 8.601562 -8 v -2 c 0 -1.105469 -0.894531 -2 -2 -2 v -37.449219 c 0 -4.738281 -3.8125 -8.550781 -8.550781 -8.550781 z m 0 0"/>
    </clipPath>
    <linearGradient id="f" gradientUnits="userSpaceOnUse" x1="12" x2="118" y1="78" y2="78">
        <stop offset="0" stop-color="#26a269"/>
        <stop offset="0.0414426" stop-color="#38ef9b"/>
        <stop offset="0.0914665" stop-color="#26a269"/>
        <stop offset="0.904371" stop-color="#26a269"/>
        <stop offset="0.952808" stop-color="#33d78b"/>
        <stop offset="1" stop-color="#26a269"/>
    </linearGradient>
    <clipPath id="g">
        <path d="m 10 67 h 108 v 9 h -108 z m 0 0"/>
    </clipPath>
    <clipPath id="h">
        <path d="m 20.636719 22 c -4.738281 0 -8.550781 3.8125 -8.550781 8.550781 v 37.460938 c -0.027344 -0.003907 -0.058594 0 -0.085938 0 c -1.105469 -0.003907 -2 0.886719 -2 1.988281 v 2 c 0 4.738281 3.769531 8 8.507812 8 h 90.890626 c 4.738281 0 8.601562 -3.261719 8.601562 -8 v -2 c 0 -1.105469 -0.894531 -2 -2 -2 v -37.449219 c 0 -4.738281 -3.8125 -8.550781 -8.550781 -8.550781 z m 0 0"/>
    </clipPath>
    <clipPath id="i">
        <path d="m 41 32 h 31 v 38 h -31 z m 0 0"/>
    </clipPath>
    <clipPath id="j">
        <path d="m 20.636719 22 c -4.738281 0 -8.550781 3.8125 -8.550781 8.550781 v 37.460938 c -0.027344 -0.003907 -0.058594 0 -0.085938 0 c -1.105469 -0.003907 -2 0.886719 -2 1.988281 v 2 c 0 4.738281 3.769531 8 8.507812 8 h 90.890626 c 4.738281 0 8.601562 -3.261719 8.601562 -8 v -2 c 0 -1.105469 -0.894531 -2 -2 -2 v -37.449219 c 0 -4.738281 -3.8125 -8.550781 -8.550781 -8.550781 z m 0 0"/>
    </clipPath>
    <clipPath id="k">
        <path d="m 47 32 h 31 v 38 h -31 z m 0 0"/>
    </clipPath>
    <clipPath id="l">
        <path d="m 20.636719 22 c -4.738281 0 -8.550781 3.8125 -8.550781 8.550781 v 37.460938 c -0.027344 -0.003907 -0.058594 0 -0.085938 0 c -1.105469 -0.003907 -2 0.886719 -2 1.988281 v 2 c 0 4.738281 3.769531 8 8.507812 8 h 90.890626 c 4.738281 0 8.601562 -3.261719 8.601562 -8 v -2 c 0 -1.105469 -0.894531 -2 -2 -2 v -37.449219 c 0 -4.738281 -3.8125 -8.550781 -8.550781 -8.550781 z m 0 0"/>
    </clipPath>
    <clipPath id="m">
        <path d="m 52 32 h 30 v 38 h -30 z m 0 0"/>
    </clipPath>
    <clipPath id="n">
        <path d="m 20.636719 22 c -4.738281 0 -8.550781 3.8125 -8.550781 8.550781 v 37.460938 c -0.027344 -0.003907 -0.058594 0 -0.085938 0 c -1.105469 -0.003907 -2 0.886719 -2 1.988281 v 2 c 0 4.738281 3.769531 8 8.507812 8 h 90.890626 c 4.738281 0 8.601562 -3.261719 8.601562 -8 v -2 c 0 -1.105469 -0.894531 -2 -2 -2 v -37.449219 c 0 -4.738281 -3.8125 -8.550781 -8.550781 -8.550781 z m 0 0"/>
    </clipPath>
    <clipPath id="o">
        <path d="m 54 32 h 30 v 38 h -30 z m 0 0"/>
    </clipPath>
    <clipPath id="p">
        <path d="m 20.636719 22 c -4.738281 0 -8.550781 3.8125 -8.550781 8.550781 v 37.460938 c -0.027344 -0.003907 -0.058594 0 -0.085938 0 c -1.105469 -0.003907 -2 0.886719 -2 1.988281 v 2 c 0 4.738281 3.769531 8 8.507812 8 h 90.890626 c 4.738281 0 8.601562 -3.261719 8.601562 -8 v -2 c 0 -1.105469 -0.894531 -2 -2 -2 v -37.449219 c 0 -4.738281 -3.8125 -8.550781 -8.550781 -8.550781 z m 0 0"/>
    </clipPath>
    <clipPath id="q">
        <path d="m 56 32 h 30 v 38 h -30 z m 0 0"/>
    </clipPath>
    <clipPath id="r">
        <path d="m 20.636719 22 c -4.738281 0 -8.550781 3.8125 -8.550781 8.550781 v 37.460938 c -0.027344 -0.003907 -0.058594 0 -0.085938 0 c -1.105469 -0.003907 -2 0.886719 -2 1.988281 v 2 c 0 4.738281 3.769531 8 8.507812 8 h 90.890626 c 4.738281 0 8.601562 -3.261719 8.601562 -8 v -2 c 0 -1.105469 -0.894531 -2 -2 -2 v -37.449219 c 0 -4.738281 -3.8125 -8.550781 -8.550781 -8.550781 z m 0 0"/>
    </clipPath>
    <clipPath id="s">
        <path d="m 76 32 h 10 v 10 h -10 z m 0 0"/>
    </clipPath>
    <clipPath id="t">
        <path d="m 20.636719 22 c -4.738281 0 -8.550781 3.8125 -8.550781 8.550781 v 37.460938 c -0.027344 -0.003907 -0.058594 0 -0.085938 0 c -1.105469 -0.003907 -2 0.886719 -2 1.988281 v 2 c 0 4.738281 3.769531 8 8.507812 8 h 90.890626 c 4.738281 0 8.601562 -3.261719 8.601562 -8 v -2 c 0 -1.105469 -0.894531 -2 -2 -2 v -37.449219 c 0 -4.738281 -3.8125 -8.550781 -8.550781 -8.550781 z m 0 0"/>
    </clipPath>
    <clipPath id="u">
        <path d="m 60 48 h 2 v 16 h -2 z m 0 0"/>
    </clipPath>
    <clipPath id="v">
        <path d="m 20.636719 22 c -4.738281 0 -8.550781 3.8125 -8.550781 8.550781 v 37.460938 c -0.027344 -0.003907 -0.058594 0 -0.085938 0 c -1.105469 -0.003907 -2 0.886719 -2 1.988281 v 2 c 0 4.738281 3.769531 8 8.507812 8 h 90.890626 c 4.738281 0 8.601562 -3.261719 8.601562 -8 v -2 c 0 -1.105469 -0.894531 -2 -2 -2 v -37.449219 c 0 -4.738281 -3.8125 -8.550781 -8.550781 -8.550781 z m 0 0"/>
    </clipPath>
    <clipPath id="w">
        <path d="m 60 63 h 21 v 1 h -21 z m 0 0"/>
    </clipPath>
    <clipPath id="x">
        <path d="m 20.636719 22 c -4.738281 0 -8.550781 3.8125 -8.550781 8.550781 v 37.460938 c -0.027344 -0.003907 -0.058594 0 -0.085938 0 c -1.105469 -0.003907 -2 0.886719 -2 1.988281 v 2 c 0 4.738281 3.769531 8 8.507812 8 h 90.890626 c 4.738281 0 8.601562 -3.261719 8.601562 -8 v -2 c 0 -1.105469 -0.894531 -2 -2 -2 v -37.449219 c 0 -4.738281 -3.8125 -8.550781 -8.550781 -8.550781 z m 0 0"/>
    </clipPath>
    <clipPath id="y">
        <path d="m 64 53 h 3 v 9 h -3 z m 0 0"/>
    </clipPath>
    <clipPath id="z">
        <path d="m 20.636719 22 c -4.738281 0 -8.550781 3.8125 -8.550781 8.550781 v 37.460938 c -0.027344 -0.003907 -0.058594 0 -0.085938 0 c -1.105469 -0.003907 -2 0.886719 -2 1.988281 v 2 c 0 4.738281 3.769531 8 8.507812 8 h 90.890626 c 4.738281 0 8.601562 -3.261719 8.601562 -8 v -2 c 0 -1.105469 -0.894531 -2 -2 -2 v -37.449219 c 0 -4.738281 -3.8125 -8.550781 -8.550781 -8.550781 z m 0 0"/>
    </clipPath>
    <clipPath id="A">
        <path d="m 68 56 h 3 v 6 h -3 z m 0 0"/>
    </clipPath>
    <clipPath id="B">
        <path d="m 20.636719 22 c -4.738281 0 -8.550781 3.8125 -8.550781 8.550781 v 37.460938 c -0.027344 -0.003907 -0.058594 0 -0.085938 0 c -1.105469 -0.003907 -2 0.886719 -2 1.988281 v 2 c 0 4.738281 3.769531 8 8.507812 8 h 90.890626 c 4.738281 0 8.601562 -3.261719 8.601562 -8 v -2 c 0 -1.105469 -0.894531 -2 -2 -2 v -37.449219 c 0 -4.738281 -3.8125 -8.550781 -8.550781 -8.550781 z m 0 0"/>
    </clipPath>
    <clipPath id="C">
        <path d="m 72 50 h 3 v 12 h -3 z m 0 0"/>
    </clipPath>
    <clipPath id="D">
        <path d="m 20.636719 22 c -4.738281 0 -8.550781 3.8125 -8.550781 8.550781 v 37.460938 c -0.027344 -0.003907 -0.058594 0 -0.085938 0 c -1.105469 -0.003907 -2 0.886719 -2 1.988281 v 2 c 0 4.738281 3.769531 8 8.507812 8 h 90.890626 c 4.738281 0 8.601562 -3.261719 8.601562 -8 v -2 c 0 -1.105469 -0.894531 -2 -2 -2 v -37.449219 c 0 -4.738281 -3.8125 -8.550781 -8.550781 -8.550781 z m 0 0"/>
    </clipPath>
    <clipPath id="E">
        <path d="m 76 52 h 4 v 10 h -4 z m 0 0"/>
    </clipPath>
    <clipPath id="F">
        <path d="m 20.636719 22 c -4.738281 0 -8.550781 3.8125 -8.550781 8.550781 v 37.460938 c -0.027344 -0.003907 -0.058594 0 -0.085938 0 c -1.105469 -0.003907 -2 0.886719 -2 1.988281 v 2 c 0 4.738281 3.769531 8 8.507812 8 h 90.890626 c 4.738281 0 8.601562 -3.261719 8.601562 -8 v -2 c 0 -1.105469 -0.894531 -2 -2 -2 v -37.449219 c 0 -4.738281 -3.8125 -8.550781 -8.550781 -8.550781 z m 0 0"/>
    </clipPath>
    <clipPath id="G">
        <path d="m 13 68 h 102 v 3 h -102 z m 0 0"/>
    </clipPath>
    <clipPath id="H">
        <path d="m 20.636719 22 c -4.738281 0 -8.550781 3.8125 -8.550781 8.550781 v 37.460938 c -0.027344 -0.003907 -0.058594 0 -0.085938 0 c -1.105469 -0.003907 -2 0.886719 -2 1.988281 v 2 c 0 4.738281 3.769531 8 8.507812 8 h 90.890626 c 4.738281 0 8.601562 -3.261719 8.601562 -8 v -2 c 0 -1.105469 -0.894531 -2 -2 -2 v -37.449219 c 0 -4.738281 -3.8125 -8.550781 -8.550781 -8.550781 z m 0 0"/>
    </clipPath>
    <filter id="I" height="100%" width="100%" x="0%" y="0%">
        <feColorMatrix in="SourceGraphic" type="matrix" values="0 0 0 0 1 0 0 0 0 1 0 0 0 0 1 0 0 0 1 0"/>
    </filter>
    <mask id="J">
        <g filter="url(#I)">
            <rect fill-opacity="0.811384" height="128" width="128"/>
        </g>
    </mask>
    <linearGradient id="K" gradientUnits="userSpaceOnUse" x1="25" x2="37" y1="52" y2="52">
        <stop offset="0" stop-color="#9a9996"/>
        <stop offset="0.460317" stop-color="#deddda"/>
        <stop offset="1" stop-color="#77767b"/>
    </linearGradient>
    <clipPath id="L">
        <rect height="152" width="192"/>
    </clipPath>
    <mask id="M">
        <g filter="url(#I)">
            <rect fill-opacity="0.811384" height="128" width="128"/>
        </g>
    </mask>
    <clipPath id="N">
        <rect height="152" width="192"/>
    </clipPath>
    <clipPath id="O">
        <path d="m 40 8 h 26 v 9 h -26 z m 0 0"/>
    </clipPath>
    <clipPath id="P">
        <path d="m 44.105469 8 h 17.789062 c 2.265625 0 4.105469 1.839844 4.105469 4.105469 s -1.839844 4.105469 -4.105469 4.105469 h -17.789062 c -2.265625 0 -4.105469 -1.839844 -4.105469 -4.105469 s 1.839844 -4.105469 4.105469 -4.105469 z m 0 0"/>
    </clipPath>
    <linearGradient id="Q" gradientUnits="userSpaceOnUse" x1="48" x2="48" y1="16.210526" y2="8.213135">
        <stop offset="0" stop-color="#b5b3b1"/>
        <stop offset="0.154297" stop-color="#81807f"/>
        <stop offset="0.740315" stop-color="#dcdbd7"/>
        <stop offset="1" stop-color="#c0bfbc"/>
    </linearGradient>
    <clipPath id="R">
        <path d="m 52 8 h 14 v 9 h -14 z m 0 0"/>
    </clipPath>
    <clipPath id="S">
        <path d="m 44.105469 8 h 17.789062 c 2.265625 0 4.105469 1.839844 4.105469 4.105469 s -1.839844 4.105469 -4.105469 4.105469 h -17.789062 c -2.265625 0 -4.105469 -1.839844 -4.105469 -4.105469 s 1.839844 -4.105469 4.105469 -4.105469 z m 0 0"/>
    </clipPath>
    <linearGradient id="T" gradientUnits="userSpaceOnUse" x1="58" x2="58" y1="16.210526" y2="8.210526">
        <stop offset="0" stop-color="#5e5c64"/>
        <stop offset="0.25" stop-color="#241f31"/>
        <stop offset="0.685813" stop-color="#7b718d"/>
        <stop offset="1" stop-color="#3d3846"/>
    </linearGradient>
    <clipPath id="U">
        <path d="m 53 10 h 11 v 7 h -11 z m 0 0"/>
    </clipPath>
    <clipPath id="V">
        <path d="m 44.105469 8 h 17.789062 c 2.265625 0 4.105469 1.839844 4.105469 4.105469 s -1.839844 4.105469 -4.105469 4.105469 h -17.789062 c -2.265625 0 -4.105469 -1.839844 -4.105469 -4.105469 s 1.839844 -4.105469 4.105469 -4.105469 z m 0 0"/>
    </clipPath>
    <clipPath id="W">
        <path d="m 53 11 h 11 v 6 h -11 z m 0 0"/>
    </clipPath>
    <clipPath id="X">
        <path d="m 44.105469 8 h 17.789062 c 2.265625 0 4.105469 1.839844 4.105469 4.105469 s -1.839844 4.105469 -4.105469 4.105469 h -17.789062 c -2.265625 0 -4.105469 -1.839844 -4.105469 -4.105469 s 1.839844 -4.105469 4.105469 -4.105469 z m 0 0"/>
    </clipPath>
    <path d="m 39.785156 100 h 48.429688 c 4.300781 0 7.785156 3.484375 7.785156 7.785156 v 4.429688 c 0 4.300781 -3.484375 7.785156 -7.785156 7.785156 h -48.429688 c -4.300781 0 -7.785156 -3.484375 -7.785156 -7.785156 v -4.429688 c 0 -4.300781 3.484375 -7.785156 7.785156 -7.785156 z m 0 0" fill="url(#a)"/>
    <path d="m 39.785156 96 h 48.429688 c 4.300781 0 7.785156 3.835938 7.785156 8.566406 v 4.867188 c 0 4.730468 -3.484375 8.566406 -7.785156 8.566406 h -48.429688 c -4.300781 0 -7.785156 -3.835938 -7.785156 -8.566406 v -4.867188 c 0 -4.730468 3.484375 -8.566406 7.785156 -8.566406 z m 0 0" fill="#dddcd9"/>
    <path d="m 64 52 c 2.210938 0 4 1.789062 4 4 v 48 c 0 2.210938 -1.789062 4 -4 4 s -4 -1.789062 -4 -4 v -48 c 0 -2.210938 1.789062 -4 4 -4 z m 0 0" fill="#c0bfbc"/>
    <path d="m 62.992188 74.75 c 0.585937 0 1.066406 0.476562 1.066406 1.066406 v 28.148438 c 0 0.589844 -0.480469 1.066406 -1.066406 1.066406 c -0.589844 0 -1.066407 -0.476562 -1.066407 -1.066406 v -28.148438 c 0 -0.589844 0.476563 -1.066406 1.066407 -1.066406 z m 0 0" fill="#dddcd9"/>
    <path d="m 60 86 v -7 h 8 v 3 c -2 -2 -6.289062 -0.746094 -8 4 z m 0 0" fill-opacity="0.188235"/>
    <g clip-path="url(#b)">
        <g clip-path="url(#c)">
            <path d="m 20.636719 24 h 86.8125 c 4.722656 0 8.550781 3.691406 8.550781 8.246094 v 37.507812 c 0 4.554688 -3.828125 8.246094 -8.550781 8.246094 h -86.8125 c -4.722657 0 -8.550781 -3.691406 -8.550781 -8.246094 v -37.507812 c 0 -4.554688 3.828124 -8.246094 8.550781 -8.246094 z m 0 0" fill="#57e389"/>
        </g>
    </g>
    <g clip-path="url(#d)">
        <g clip-path="url(#e)">
            <path d="m 10 70 v 2 c 0 4.738281 3.769531 8 8.507812 8 h 90.894532 c 4.734375 0 8.597656 -3.261719 8.597656 -8 v -2 c -35.996094 -0.082031 -72.003906 0.121094 -108 0 z m 0 0" fill="url(#f)"/>
        </g>
    </g>
    <g clip-path="url(#g)">
        <g clip-path="url(#h)">
            <path d="m 10 69.597656 c 0 3.792969 3.769531 6.402344 8.507812 6.402344 h 90.894532 c 4.734375 0 8.597656 -2.609375 8.597656 -6.402344 c 0 -0.882812 -0.894531 -1.601562 -2 -1.601562 c -34.664062 -0.054688 -69.335938 0.09375 -104 0.007812 c -1.105469 -0.003906 -2 0.710938 -2 1.59375 z m 0 0" fill="#2ec27e"/>
        </g>
    </g>
    <g clip-path="url(#i)">
        <g clip-path="url(#j)">
            <path d="m 44.6875 32 h 17.285156 l 10 10 l -0.128906 25.277344 c -0.003906 1.503906 -1.222656 2.722656 -2.726562 2.722656 h -24.429688 c -1.503906 0 -2.714844 -1.210938 -2.714844 -2.714844 v -32.570312 c 0 -1.503906 1.210938 -2.714844 2.714844 -2.714844 z m 0 0" fill="#c0bfbc"/>
        </g>
    </g>
    <g clip-path="url(#k)">
        <g clip-path="url(#l)">
            <path d="m 50.6875 32 h 17.285156 l 10 10 l -0.128906 25.277344 c -0.003906 1.503906 -1.222656 2.722656 -2.726562 2.722656 h -24.429688 c -1.503906 0 -2.714844 -1.210938 -2.714844 -2.714844 v -32.570312 c 0 -1.503906 1.210938 -2.714844 2.714844 -2.714844 z m 0 0" fill="#deddda"/>
        </g>
    </g>
    <g clip-path="url(#m)">
        <g clip-path="url(#n)">
            <path d="m 54.714844 32 h 17.285156 l 10 10 l -0.128906 25.277344 c -0.007813 1.503906 -1.222656 2.722656 -2.726563 2.722656 h -24.429687 c -1.503906 0 -2.714844 -1.210938 -2.714844 -2.714844 v -32.570312 c 0 -1.503906 1.210938 -2.714844 2.714844 -2.714844 z m 0 0" fill="#f6f5f4"/>
        </g>
    </g>
    <g clip-path="url(#o)">
        <g clip-path="url(#p)">
            <path d="m 56.714844 32 h 17.285156 l 10 10 l -0.128906 25.277344 c -0.007813 1.503906 -1.222656 2.722656 -2.726563 2.722656 h -24.429687 c -1.503906 0 -2.714844 -1.210938 -2.714844 -2.714844 v -32.570312 c 0 -1.503906 1.210938 -2.714844 2.714844 -2.714844 z m 0 0" fill="#deddda"/>
        </g>
    </g>
    <g clip-path="url(#q)">
        <g clip-path="url(#r)">
            <path d="m 58.714844 32 h 17.285156 l 10 10 l -0.128906 25.277344 c -0.007813 1.503906 -1.222656 2.722656 -2.726563 2.722656 h -24.429687 c -1.503906 0 -2.714844 -1.210938 -2.714844 -2.714844 v -32.570312 c 0 -1.503906 1.210938 -2.714844 2.714844 -2.714844 z m 0 0" fill="#f6f5f4"/>
        </g>
    </g>
    <g clip-path="url(#s)">
        <g clip-path="url(#t)">
            <path d="m 76 32 v 7.351562 c 0 1.480469 1.1875 2.648438 2.644531 2.648438 h 7.355469 z m 0 0" fill="#deddda"/>
        </g>
    </g>
    <g clip-path="url(#u)">
        <g clip-path="url(#v)">
            <path d="m 60.957031 48 h 1.015625 v 16 h -1.015625 z m 0 0" fill="#d5d3cf"/>
        </g>
    </g>
    <g clip-path="url(#w)">
        <g clip-path="url(#x)">
            <path d="m 81 63.003906 v 0.996094 h -20.042969 v -0.996094 z m 0 0" fill="#d5d3cf"/>
        </g>
    </g>
    <g clip-path="url(#y)">
        <g clip-path="url(#z)">
            <path d="m 64 53.894531 h 3 v 8.105469 h -3 z m 0 0" fill="#50db81"/>
        </g>
    </g>
    <g clip-path="url(#A)">
        <g clip-path="url(#B)">
            <path d="m 68 56.949219 h 3 v 5.050781 h -3 z m 0 0" fill="#8f5aa0"/>
        </g>
    </g>
    <g clip-path="url(#C)">
        <g clip-path="url(#D)">
            <path d="m 72 50 h 3 v 12 h -3 z m 0 0" fill="#fb8c14"/>
        </g>
    </g>
    <g clip-path="url(#E)">
        <g clip-path="url(#F)">
            <path d="m 76 52 h 3.003906 v 10 h -3.003906 z m 0 0" fill="#e01b24"/>
        </g>
    </g>
    <g clip-path="url(#G)">
        <g clip-path="url(#H)">
            <path d="m 14.050781 235.0625 h 99.945313" fill="none" stroke="#8ff0a4" stroke-linecap="round" stroke-width="2" transform="matrix(1 0 0 1 0 -166)"/>
        </g>
    </g>
    <g clip-path="url(#L)" mask="url(#J)" transform="matrix(1 0 0 1 -8 -16)">
        <path d="m 37 49 c 0 2.210938 -2.6875 4 -6 4 s -6 -1.789062 -6 -4 s 2.6875 -4 6 -4 s 6 1.789062 6 4 z m 0 0" fill="url(#K)"/>
    </g>
    <g clip-path="url(#N)" mask="url(#M)" transform="matrix(1 0 0 1 -8 -16)">
        <path d="m 37 48 c 0 2.210938 -2.6875 4 -6 4 s -6 -1.789062 -6 -4 s 2.6875 -4 6 -4 s 6 1.789062 6 4 z m 0 0" fill="#deddda"/>
    </g>
    <path d="m 41 11 h -12 c -3.3125 0 -6 2.6875 -6 6 v 15.054688" fill="none" stroke="#c0bfbc" stroke-linecap="round" stroke-width="2"/>
    <g clip-path="url(#O)">
        <g clip-path="url(#P)">
            <path d="m 39 5.210938 h 29 v 14 h -29 z m 0 0" fill="url(#Q)"/>
        </g>
    </g>
    <g clip-path="url(#R)">
        <g clip-path="url(#S)">
            <path d="m 52 6.210938 h 16 v 13 h -16 z m 0 0" fill="url(#T)"/>
        </g>
    </g>
    <g clip-path="url(#U)">
        <g clip-path="url(#V)">
            <path d="m 63 10.210938 c 0.554688 0 1 0.445312 1 1 v 5 c 0 0.554687 -0.445312 1 -1 1 s -1 -0.445313 -1 -1 v -5 c 0 -0.554688 0.445312 -1 1 -1 z m -3 0 c 0.554688 0 1 0.445312 1 1 v 5 c 0 0.554687 -0.445312 1 -1 1 s -1 -0.445313 -1 -1 v -5 c 0 -0.554688 0.445312 -1 1 -1 z m -3 0 c 0.554688 0 1 0.445312 1 1 v 5 c 0 0.554687 -0.445312 1 -1 1 s -1 -0.445313 -1 -1 v -5 c 0 -0.554688 0.445312 -1 1 -1 z m -3 0 c 0.554688 0 1 0.445312 1 1 v 5 c 0 0.554687 -0.445312 1 -1 1 s -1 -0.445313 -1 -1 v -5 c 0 -0.554688 0.445312 -1 1 -1 z m 0 0" fill="#ffffff" fill-opacity="0.184314"/>
        </g>
    </g>
    <g clip-path="url(#W)">
        <g clip-path="url(#X)">
            <path d="m 63 11.210938 c 0.554688 0 1 0.445312 1 1 v 5 c 0 0.554687 -0.445312 1 -1 1 s -1 -0.445313 -1 -1 v -5 c 0 -0.554688 0.445312 -1 1 -1 z m -3 0 c 0.554688 0 1 0.445312 1 1 v 5 c 0 0.554687 -0.445312 1 -1 1 s -1 -0.445313 -1 -1 v -5 c 0 -0.554688 0.445312 -1 1 -1 z m -3 0 c 0.554688 0 1 0.445312 1 1 v 5 c 0 0.554687 -0.445312 1 -1 1 s -1 -0.445313 -1 -1 v -5 c 0 -0.554688 0.445312 -1 1 -1 z m -3 0 c 0.554688 0 1 0.445312 1 1 v 5 c 0 0.554687 -0.445312 1 -1 1 s -1 -0.445313 -1 -1 v -5 c 0 -0.554688 0.445312 -1 1 -1 z m 0 0"/>
        </g>
    </g>
</svg>
